Library\Bee\artifacts\mvdfrm\Unity.Services.Core.Configuration.ref.dll_9A0B0462DB47136F.mvfrm
Library\Bee\artifacts\mvdfrm\Unity.Services.Core.Internal.ref.dll_A02B3542C15F550A.mvfrm
Library\Bee\artifacts\mvdfrm\Unity.Services.Core.ref.dll_131AC9C5EC6E6517.mvfrm
Library\Bee\artifacts\mvdfrm\UnityEditor.TestRunner.ref.dll_193EC4CE382CBFB3.mvfrm
Library\Bee\artifacts\mvdfrm\UnityEditor.UI.ref.dll_4C98D3F7040CD4F5.mvfrm
Library\Bee\artifacts\mvdfrm\UnityEngine.TestRunner.ref.dll_E55D0F7C63F01D9E.mvfrm
Library\Bee\artifacts\mvdfrm\UnityEngine.UI.ref.dll_08FEAA520A2EFD60.mvfrm
Library\Bee\artifacts\mvdfrm\UnityEditor.Graphs.dll_081C04C805F68594.mvfrm
Library\Bee\artifacts\mvdfrm\UnityEditor.CoreModule.dll_F620438D966BDD62.mvfrm
Library\Bee\artifacts\mvdfrm\UnityEditor.DeviceSimulatorModule.dll_343D573A92D2DBFF.mvfrm
Library\Bee\artifacts\mvdfrm\UnityEditor.DiagnosticsModule.dll_16673A730CA9768D.mvfrm
Library\Bee\artifacts\mvdfrm\UnityEditor.dll_EA82C980EDFB8E93.mvfrm
Library\Bee\artifacts\mvdfrm\UnityEditor.EditorToolbarModule.dll_669B3433340AFFEF.mvfrm
Library\Bee\artifacts\mvdfrm\UnityEditor.GraphViewModule.dll_BD6911A20E95CAC4.mvfrm
Library\Bee\artifacts\mvdfrm\UnityEditor.PresetsUIModule.dll_78CF4A8410EE22C9.mvfrm
Library\Bee\artifacts\mvdfrm\UnityEditor.PropertiesModule.dll_CD791EC069039016.mvfrm
Library\Bee\artifacts\mvdfrm\UnityEditor.QuickSearchModule.dll_A176BB80658072E6.mvfrm
Library\Bee\artifacts\mvdfrm\UnityEditor.SceneTemplateModule.dll_8A3AA4F132F7AA27.mvfrm
Library\Bee\artifacts\mvdfrm\UnityEditor.SceneViewModule.dll_FC18F4AA03B897D2.mvfrm
Library\Bee\artifacts\mvdfrm\UnityEditor.TextCoreFontEngineModule.dll_5CC4836E2002F8A0.mvfrm
Library\Bee\artifacts\mvdfrm\UnityEditor.TextCoreTextEngineModule.dll_A4ACB9DFAF86B1BE.mvfrm
Library\Bee\artifacts\mvdfrm\UnityEditor.UIBuilderModule.dll_11F1BEBE814E43F8.mvfrm
Library\Bee\artifacts\mvdfrm\UnityEditor.UIElementsModule.dll_F85619DBE8FBE55E.mvfrm
Library\Bee\artifacts\mvdfrm\UnityEditor.UIElementsSamplesModule.dll_AF009B53C7F8FBEF.mvfrm
Library\Bee\artifacts\mvdfrm\UnityEditor.UnityConnectModule.dll_4157E2C1610D3D18.mvfrm
Library\Bee\artifacts\mvdfrm\UnityEngine.AccessibilityModule.dll_BCE01088336DD1C4.mvfrm
Library\Bee\artifacts\mvdfrm\UnityEngine.AIModule.dll_529183939958D376.mvfrm
Library\Bee\artifacts\mvdfrm\UnityEngine.AndroidJNIModule.dll_769F02AF321B5434.mvfrm
Library\Bee\artifacts\mvdfrm\UnityEngine.AnimationModule.dll_8BEE8DCAE8F29F6A.mvfrm
Library\Bee\artifacts\mvdfrm\UnityEngine.ARModule.dll_0C044896F676323F.mvfrm
Library\Bee\artifacts\mvdfrm\UnityEngine.AssetBundleModule.dll_E55FEE71C7E727D8.mvfrm
Library\Bee\artifacts\mvdfrm\UnityEngine.AudioModule.dll_7E78AA849B3F15DC.mvfrm
Library\Bee\artifacts\mvdfrm\UnityEngine.ClothModule.dll_E561077F755BF4C0.mvfrm
Library\Bee\artifacts\mvdfrm\UnityEngine.ClusterInputModule.dll_C0F457D712950FDE.mvfrm
Library\Bee\artifacts\mvdfrm\UnityEngine.ClusterRendererModule.dll_39EA19AC028DE983.mvfrm
Library\Bee\artifacts\mvdfrm\UnityEngine.ContentLoadModule.dll_7E7647B29669CFC5.mvfrm
Library\Bee\artifacts\mvdfrm\UnityEngine.CoreModule.dll_194116E03E71488D.mvfrm
Library\Bee\artifacts\mvdfrm\UnityEngine.CrashReportingModule.dll_B8F80D3ECE6E3645.mvfrm
Library\Bee\artifacts\mvdfrm\UnityEngine.DirectorModule.dll_CFC7B27E6D28D1EA.mvfrm
Library\Bee\artifacts\mvdfrm\UnityEngine.dll_1D2710594C6F1B78.mvfrm
Library\Bee\artifacts\mvdfrm\UnityEngine.DSPGraphModule.dll_D51913E7DF89A30B.mvfrm
Library\Bee\artifacts\mvdfrm\UnityEngine.GameCenterModule.dll_A0EC4CC9F85C4525.mvfrm
Library\Bee\artifacts\mvdfrm\UnityEngine.GIModule.dll_EACDCCA13507BB90.mvfrm
Library\Bee\artifacts\mvdfrm\UnityEngine.GridModule.dll_F6B232CE56C5DE84.mvfrm
Library\Bee\artifacts\mvdfrm\UnityEngine.HotReloadModule.dll_0D374BD0C425BAEC.mvfrm
Library\Bee\artifacts\mvdfrm\UnityEngine.ImageConversionModule.dll_A5DC175C84B2A177.mvfrm
Library\Bee\artifacts\mvdfrm\UnityEngine.IMGUIModule.dll_B6D849EB6170A9BD.mvfrm
Library\Bee\artifacts\mvdfrm\UnityEngine.InputLegacyModule.dll_76A509905FD8DDC9.mvfrm
Library\Bee\artifacts\mvdfrm\UnityEngine.InputModule.dll_E4EE723511773A80.mvfrm
Library\Bee\artifacts\mvdfrm\UnityEngine.JSONSerializeModule.dll_1CF799C432A9324E.mvfrm
Library\Bee\artifacts\mvdfrm\UnityEngine.LocalizationModule.dll_FF412229AA1102D7.mvfrm
Library\Bee\artifacts\mvdfrm\UnityEngine.MarshallingModule.dll_8DC88D06AC0F552A.mvfrm
Library\Bee\artifacts\mvdfrm\UnityEngine.NVIDIAModule.dll_26349AF177A1C099.mvfrm
Library\Bee\artifacts\mvdfrm\UnityEngine.ParticleSystemModule.dll_0C0A568B3C7FC1D3.mvfrm
Library\Bee\artifacts\mvdfrm\UnityEngine.PerformanceReportingModule.dll_01EE742E3D2AAA4C.mvfrm
Library\Bee\artifacts\mvdfrm\UnityEngine.Physics2DModule.dll_D8947DBB89EF96FF.mvfrm
Library\Bee\artifacts\mvdfrm\UnityEngine.PhysicsModule.dll_ED5B9CE9C510542D.mvfrm
Library\Bee\artifacts\mvdfrm\UnityEngine.ProfilerModule.dll_020DEBB5068258F7.mvfrm
Library\Bee\artifacts\mvdfrm\UnityEngine.PropertiesModule.dll_CE278C086B47A961.mvfrm
Library\Bee\artifacts\mvdfrm\UnityEngine.RuntimeInitializeOnLoadManagerInitializerModule.dll_2B8438CAD8D585C8.mvfrm
Library\Bee\artifacts\mvdfrm\UnityEngine.ScreenCaptureModule.dll_36DF474947155EB0.mvfrm
Library\Bee\artifacts\mvdfrm\UnityEngine.SharedInternalsModule.dll_29ED5631FBE09CC7.mvfrm
Library\Bee\artifacts\mvdfrm\UnityEngine.SpriteMaskModule.dll_8A18BF5A19CBDA9F.mvfrm
Library\Bee\artifacts\mvdfrm\UnityEngine.SpriteShapeModule.dll_FEC11BCC7D895FE2.mvfrm
Library\Bee\artifacts\mvdfrm\UnityEngine.StreamingModule.dll_40837B1B387A56A8.mvfrm
Library\Bee\artifacts\mvdfrm\UnityEngine.SubstanceModule.dll_1D2E8F6483CD54B6.mvfrm
Library\Bee\artifacts\mvdfrm\UnityEngine.SubsystemsModule.dll_F4C625BBE813C2B2.mvfrm
Library\Bee\artifacts\mvdfrm\UnityEngine.TerrainModule.dll_07A218589ACE9D1B.mvfrm
Library\Bee\artifacts\mvdfrm\UnityEngine.TerrainPhysicsModule.dll_0C84FF5E55C2BC60.mvfrm
Library\Bee\artifacts\mvdfrm\UnityEngine.TextCoreFontEngineModule.dll_DB23FEC13300B76B.mvfrm
Library\Bee\artifacts\mvdfrm\UnityEngine.TextCoreTextEngineModule.dll_230C3532C2847089.mvfrm
Library\Bee\artifacts\mvdfrm\UnityEngine.TextRenderingModule.dll_601EB953FE4CDEA5.mvfrm
Library\Bee\artifacts\mvdfrm\UnityEngine.TilemapModule.dll_A69E7FD9B28B7E24.mvfrm
Library\Bee\artifacts\mvdfrm\UnityEngine.TLSModule.dll_5F4EF18662CA51C1.mvfrm
Library\Bee\artifacts\mvdfrm\UnityEngine.UIElementsModule.dll_F9048723EB3FFEA9.mvfrm
Library\Bee\artifacts\mvdfrm\UnityEngine.UIModule.dll_4E0521C0F59FD922.mvfrm
Library\Bee\artifacts\mvdfrm\UnityEngine.UmbraModule.dll_F94D569D2865C14F.mvfrm
Library\Bee\artifacts\mvdfrm\UnityEngine.UnityAnalyticsCommonModule.dll_9D2D3172571348AA.mvfrm
Library\Bee\artifacts\mvdfrm\UnityEngine.UnityAnalyticsModule.dll_2BA9C754E8A713CF.mvfrm
Library\Bee\artifacts\mvdfrm\UnityEngine.UnityConnectModule.dll_2EB766D05B953DC3.mvfrm
Library\Bee\artifacts\mvdfrm\UnityEngine.UnityCurlModule.dll_BF0B2EFC59069157.mvfrm
Library\Bee\artifacts\mvdfrm\UnityEngine.UnityTestProtocolModule.dll_6AC3514621F45145.mvfrm
Library\Bee\artifacts\mvdfrm\UnityEngine.UnityWebRequestAssetBundleModule.dll_B5AFDCD4894AF9E0.mvfrm
Library\Bee\artifacts\mvdfrm\UnityEngine.UnityWebRequestAudioModule.dll_79EAC80CC39574E4.mvfrm
Library\Bee\artifacts\mvdfrm\UnityEngine.UnityWebRequestModule.dll_B77B1F068FA73BF6.mvfrm
Library\Bee\artifacts\mvdfrm\UnityEngine.UnityWebRequestTextureModule.dll_E19839CA485F4F39.mvfrm
Library\Bee\artifacts\mvdfrm\UnityEngine.UnityWebRequestWWWModule.dll_EDCE7A8EB2442CF5.mvfrm
Library\Bee\artifacts\mvdfrm\UnityEngine.VehiclesModule.dll_478AABFDE752A185.mvfrm
Library\Bee\artifacts\mvdfrm\UnityEngine.VFXModule.dll_E02D89F53937BB2E.mvfrm
Library\Bee\artifacts\mvdfrm\UnityEngine.VideoModule.dll_A3822EEF5DD13181.mvfrm
Library\Bee\artifacts\mvdfrm\UnityEngine.VirtualTexturingModule.dll_048EB265A90034EB.mvfrm
Library\Bee\artifacts\mvdfrm\UnityEngine.VRModule.dll_A0D74846975A5E9A.mvfrm
Library\Bee\artifacts\mvdfrm\UnityEngine.WindModule.dll_8F8FF208CFA7C6F6.mvfrm
Library\Bee\artifacts\mvdfrm\UnityEngine.XRModule.dll_D3960B4B2094ABF8.mvfrm
Library\Bee\artifacts\mvdfrm\UnityEditor.WindowsStandalone.Extensions.dll_5CB07C82A2D4BC5E.mvfrm
Library\Bee\artifacts\mvdfrm\Unity.Plastic.Antlr3.Runtime.dll_2FDCB6D7D3D875B2.mvfrm
Library\Bee\artifacts\mvdfrm\Unity.Plastic.Newtonsoft.Json.dll_8350C897BEDDAB63.mvfrm
Library\Bee\artifacts\mvdfrm\Unity.VisualScripting.IonicZip.dll_3BC3E19486E7541D.mvfrm
Library\Bee\artifacts\mvdfrm\Unity.VisualScripting.YamlDotNet.dll_AD6B6FA48234C86F.mvfrm
Library\Bee\artifacts\mvdfrm\Unity.VisualScripting.TextureAssets.dll_448998F843022667.mvfrm
Library\Bee\artifacts\mvdfrm\Unity.VisualScripting.Antlr3.Runtime.dll_5ED89685B2FDD88E.mvfrm